{
    "api":{
        "key": "apiKey=6c3a2d45",
        "baseAddress": "http://www.omdbapi.com/",
        "params": {
            "search": "s=",
            "titleSearch": "t=",
            "idSearch": "i=",
            "releaseYear": "y=",
            "mediaType": "type=",
            "plotLength": "plot=",
            "page": "page="
        }
    },

    "pages": {
        "main": "/",
        "featured": "/featured",
        "notFound": "*"
    }
}